<?xml version="1.0" encoding="utf-8"?>
<!-- Generator: Adobe Illustrator 19.0.0, SVG Export Plug-In . SVG Version: 6.00 Build 0)  -->
<svg version="1.1" id="Layer_1" xmlns="http://www.w3.org/2000/svg" xmlns:xlink="http://www.w3.org/1999/xlink" x="0px" y="0px"
	 viewBox="0 0 1000 1000" style="enable-background:new 0 0 1000 1000;" xml:space="preserve">
<style type="text/css">
	.st0{fill:#C97631;}
</style>
<path id="R_1_" class="st0" d="M487.4,253.7c-28.3-5.9-22.8,53.7-29.6,71.4c18.2,0.4,51.1-12.2,103.6-15.7c0,0,36.2-17.5,37.3-2.1
	c3,38.7-20.2,22.3-37.3,14.6c-14.3-2-119,32.5-122.9,16.4c-2.7-10.9,12.4-101.7,27.7-118.5c6.9-7.7,8.3-4.7,14.3-8.9
	C523.6,217,505.5,257,487.4,253.7"/>
</svg>
