<?xml version="1.0" encoding="utf-8"?>
<!-- Generator: Adobe Illustrator 19.0.0, SVG Export Plug-In . SVG Version: 6.00 Build 0)  -->
<svg version="1.1" id="Layer_1" xmlns="http://www.w3.org/2000/svg" xmlns:xlink="http://www.w3.org/1999/xlink" x="0px" y="0px"
	 viewBox="0 0 1000 1000" style="enable-background:new 0 0 1000 1000;" xml:space="preserve">
<style type="text/css">
	.st0{fill:#7A3D00;}
</style>
<g id="Areola_2_">
	<path id="XMLID_206_" class="st0" d="M452.2,271.7c1.3-0.4,2.9,1.2,3.5,3.5c0.5,2.3-0.1,4.5-1.3,4.9c-1.3,0.4-2.9-1.2-3.5-3.5
		C450.3,274.3,450.9,272.1,452.2,271.7z"/>
	
		<ellipse id="XMLID_205_" transform="matrix(-6.481864e-002 -0.9979 0.9979 -6.481864e-002 269.9753 811.2144)" class="st0" cx="515.1" cy="279.1" rx="6.1" ry="4.9"/>
</g>
</svg>
