<?xml version="1.0" encoding="utf-8"?>
<!-- Generator: Adobe Illustrator 19.0.0, SVG Export Plug-In . SVG Version: 6.00 Build 0)  -->
<svg version="1.1" id="Layer_1" xmlns="http://www.w3.org/2000/svg" xmlns:xlink="http://www.w3.org/1999/xlink" x="0px" y="0px"
	 viewBox="0 0 1000 1000" style="enable-background:new 0 0 1000 1000;" xml:space="preserve">
<style type="text/css">
	.st0{fill:#7A3D00;}
</style>
<g id="Areola_5_">
	<path id="XMLID_92_" class="st0" d="M394.6,323.8c2.7-0.7,5.8,2.4,6.8,6.8c1.2,4.4-0.2,8.8-2.7,9.5c-2.7,0.7-5.8-2.4-6.8-6.8
		C390.7,328.7,392,324.4,394.6,323.8z"/>
	
		<ellipse id="XMLID_91_" transform="matrix(-6.481864e-002 -0.9979 0.9979 -6.481864e-002 213.7481 876.1148)" class="st0" cx="517.4" cy="337.9" rx="11.9" ry="9.5"/>
</g>
</svg>
