<?xml version="1.0" encoding="utf-8"?>
<!-- Generator: Adobe Illustrator 19.0.0, SVG Export Plug-In . SVG Version: 6.00 Build 0)  -->
<svg version="1.1" id="Layer_1" xmlns="http://www.w3.org/2000/svg" xmlns:xlink="http://www.w3.org/1999/xlink" x="0px" y="0px"
	 viewBox="0 0 1000 1000" style="enable-background:new 0 0 1000 1000;" xml:space="preserve">
<style type="text/css">
	.st0{fill:#763818;}
</style>
<path id="R" class="st0" d="M486.2,253.7c-28.3-5.9-25.4,54.5-32.3,72.2c4.3,15.6,5.7,40.7,31.3,84.7c0,0,36.2-17.5,37.3-2.1
	c3,38.7-24.5,17.2-41.7,9.6c-10.7-4.8-39-81-42.9-97.1c-2.7-10.9,11.8-84.2,27.1-101.1c6.9-7.7,8.3-4.7,14.3-8.9
	C522.3,217,504.2,257,486.2,253.7"/>
</svg>
